%YAML 1.1
%TAG !u! tag:unity3d.com,2011:
--- !u!114 &11400000
MonoBehaviour:
  m_ObjectHideFlags: 0
  m_CorrespondingSourceObject: {fileID: 0}
  m_PrefabInstance: {fileID: 0}
  m_PrefabAsset: {fileID: 0}
  m_GameObject: {fileID: 0}
  m_Enabled: 1
  m_EditorHideFlags: 0
  m_Script: {fileID: 11500000, guid: bc0cba5ff46f8314e84fd925970cdefb, type: 3}
  m_Name: 42F6DD66-3B65-4D74-9773-53F9B1D996E4
  m_EditorClassIdentifier: 
  objectName: Menu
  id: 2607556080
  guid: 42F6DD66-3B65-4D74-9773-53F9B1D996E4
