%YAML 1.1
%TAG !u! tag:unity3d.com,2011:
--- !u!114 &11400000
MonoBehaviour:
  m_ObjectHideFlags: 0
  m_CorrespondingSourceObject: {fileID: 0}
  m_PrefabInstance: {fileID: 0}
  m_PrefabAsset: {fileID: 0}
  m_GameObject: {fileID: 0}
  m_Enabled: 1
  m_EditorHideFlags: 0
  m_Script: {fileID: 11500000, guid: bc0cba5ff46f8314e84fd925970cdefb, type: 3}
  m_Name: DB6AEF9A-1316-41D5-9191-E03376C8CC7B
  m_EditorClassIdentifier: 
  objectName: Pause
  id: 3092587493
  guid: DB6AEF9A-1316-41D5-9191-E03376C8CC7B
